TM1638/.Xil/Vivado-6700-LAPTOP-M2SF55JC/hw_ila_data_1/zip_work/waveform.vcd
$date
        2024-Jan-24 16:58:52
$end
$version
        Vivado v2019.1 (64-bit)
$end
$timescale
        1ps
$end
$scope module dut $end
$var reg 1 " clk_kHz_OBUF $end
$var reg 1 # dio_OBUF $end
$var reg 1 $ stb_OBUF $end
$var reg 1 % _TRIGGER $end
$var reg 1 & _WINDOW $end
$var reg 1 ' _GAP $end
$upscope $end
$enddefinitions $end
#0
$dumpvars
1"
0#
0$
0%
1&
0'
$end
#50536
1$
#52536
0$
#53536
0"
#54536
1"
#55536
0"
#56536
1"
#57536
0"
#58536
1"
#59536
0"
#60536
1"
#61536
0"
#62536
1"
#63536
0"
#64536
1"
#65536
0"
1#
1%
#66536
1"
#67536
0"
0#
#68536
1"
#69536
1$
#70536
0$
#71536
0"
#72536
1"
#73536
0"
#74536
1"
#75536
0"
#76536
1"
#77536
0"
#78536
1"
#79536
0"
#80536
1"
#81536
0"
#82536
1"
#83536
0"
1#
#84536
1"
#85536
0"
#86536
1"
#89536
0"
0#
#90536
1"
#91536
0"
1#
#92536
1"
#93536
0"
#94536
1"
#95536
0"
0#
#96536
1"
#97536
0"
1#
#98536
1"
#99536
0"
#100536
1"
#101536
0"
#102536
1"
#103536
0"
0#
#104536
1"
#105536
0"
#106536
1"
#107536
0"
#108536
1"
#109536
0"
#110536
1"
#111536
0"
#112536
1"
#113536
0"
#114536
1"
#115536
0"
#116536
1"
#117536
0"
#118536
1"
#119536
0"
#120536
1"
#121536
0"
1#
#122536
1"
#123536
0"
0#
#124536
1"
#125536
0"
#126536
1"
#127536
0"
1#
